<?xml version="1.0" standalone="no"?>
<!DOCTYPE svg PUBLIC "-//W3C//DTD SVG 1.1//EN" "http://www.w3.org/Graphics/SVG/1.1/DTD/svg11.dtd">
<svg xmlns="http://www.w3.org/2000/svg">
<metadata>Copyright (C) 2018 by original authors @ fontello.com</metadata>
<defs>
<font id="fontello" horiz-adv-x="1000" >
<font-face font-family="fontello" font-weight="400" font-stretch="normal" units-per-em="1000" ascent="850" descent="-150" />
<missing-glyph horiz-adv-x="1000" />
<glyph glyph-name="thumbs-up" unicode="&#xe800;" d="M143 100q0 15-11 25t-25 11-25-11-11-25 11-25 25-11 25 11 11 25z m643 321q0 29-22 50t-50 22h-196q0 32 27 89t26 89q0 55-17 81t-72 27q-14-15-21-48t-17-70-33-61q-13-13-43-51-2-3-13-16t-18-23-19-24-22-25-22-19-22-15-20-6h-18v-357h18q7 0 18-1t18-4 21-6 20-7 20-6 16-6q118-41 191-41h67q107 0 107 93 0 15-2 31 16 9 26 30t10 41-10 38q29 28 29 67 0 14-5 31t-14 26q18 1 30 26t12 45z m71 1q0-50-27-91 5-18 5-38 0-43-21-81 1-12 1-24 0-56-33-99 0-78-48-123t-126-45h-72q-54 0-106 13t-121 36q-65 23-77 23h-161q-29 0-50 21t-21 50v357q0 30 21 51t50 21h153q20 13 77 86 32 42 60 72 13 14 19 48t17 70 35 60q22 21 50 21 47 0 84-18t57-57 20-104q0-51-27-107h98q58 0 101-42t42-100z" horiz-adv-x="857.1" />

<glyph glyph-name="thumbs-up-1" unicode="&#xe801;" d="M811 470q38-13 58-51t15-77l-35-312q-6-39-32-70t-58-44q-5-1-26-9t-29-11-30-7-45-6-56-2q-83 0-174 26t-130 56q-1 1-3 2t-4 4-3 4q-46-40-103-40-65 0-110 45t-46 111l0 313q0 65 46 110t110 46q77 0 124-63 44 44 64 85t21 108q0 54 38 92t92 39 92-39 38-92q0-94-16-188 170-17 202-30z m-655-432q22 0 37 15t16 36l0 313q0 21-16 36t-37 16-37-16-15-36l0-313q0-21 15-36t37-15z m590 7l35 312q3 12-6 16-15 4-107 15t-119 14l-69-10 16 73q25 117 25 223 0 10-8 18t-18 8-18-8-8-18q0-54-11-98t-32-78-37-51-40-43q-36-36-36-69l0-260q0-30 18-44 24-17 99-38t143-22q26 0 45 1t35 5 23 5 23 9 24 9q6 3 14 13t9 18z" horiz-adv-x="885" />

<glyph glyph-name="heart" unicode="&#xe802;" d="M0 530q0 103 73 176t177 73q70 0 128-34t91-93q32 58 90 93t128 34q103 0 177-73t73-176q0-95-63-166l-343-403q-25-31-62-31t-63 31l-343 403q-63 71-63 166z" horiz-adv-x="937.5" />

<glyph glyph-name="comment" unicode="&#xe803;" d="M1000 350q0-97-67-179t-182-130-251-48q-39 0-81 4-110-97-257-135-27-8-63-12-10-1-17 5t-10 16v1q-2 2 0 6t1 6 2 5l4 5t4 5 4 5q4 5 17 19t20 22 17 22 18 28 15 33 15 42q-88 50-138 123t-51 157q0 73 40 139t106 114 160 76 194 28q136 0 251-48t182-130 67-179z" horiz-adv-x="1000" />

<glyph glyph-name="comment-1" unicode="&#xe804;" d="M700 700q42 0 71-29t29-71l0-350q0-40-29-70t-71-30l-200 0 0-150-200 150-200 0q-40 0-70 30t-30 70l0 350q0 42 30 71t70 29l600 0z" horiz-adv-x="800" />

<glyph glyph-name="comment-2" unicode="&#xe805;" d="M576 629l-278 0q-70 0-119-49t-49-119l0-278q0-58 44-90 68 90 179 90l223 0q92 0 158 65t65 158-65 157-158 66z m0 112q139 0 237-99t98-236-98-237-237-98l-223 0q-46 0-79-33t-33-79q-92 0-157 66t-66 158l0 278q0 115 82 197t198 83l278 0z" horiz-adv-x="928" />

<glyph glyph-name="comment-inv" unicode="&#xe806;" d="M18 183l0 278q0 115 82 197t198 83l278 0q139 0 237-99t98-236-98-237-237-98l-223 0q-46 0-79-33t-33-79q-92 0-157 66t-66 158z" horiz-adv-x="928" />

<glyph glyph-name="comment-empty" unicode="&#xf0e5;" d="M500 636q-114 0-213-39t-157-105-59-142q0-62 40-119t113-98l48-28-15-53q-13-51-39-97 85 36 154 96l24 21 32-3q38-5 72-5 114 0 213 39t157 105 59 142-59 142-157 105-213 39z m500-286q0-97-67-179t-182-130-251-48q-39 0-81 4-110-97-257-135-27-8-63-12h-3q-8 0-15 6t-9 15v1q-2 2 0 6t1 6 2 5l4 5t4 5 4 5q4 5 17 19t20 22 17 22 18 28 15 33 15 42q-88 50-138 123t-51 157q0 97 67 179t182 130 251 48 251-48 182-130 67-179z" horiz-adv-x="1000" />

<glyph glyph-name="comment-3" unicode="&#xf4ac;" d="M0 404q0 67 27 130t75 114 114 89 145 59 166 21 166-21 146-59 113-89 76-114 26-130q0-84-42-160t-112-131-168-88-205-33q-105 0-201 31l-121-85q-67-42-94-24t-12 100l25 125q-60 55-92 122t-32 143z" horiz-adv-x="1054.7" />
</font>
</defs>
</svg>