{
  "name": "",
  "css_prefix_text": "icon-",
  "css_use_suffix": false,
  "hinting": true,
  "units_per_em": 1000,
  "ascent": 850,
  "glyphs": [
    {
      "uid": "acf41aa4018e58d49525665469e35665",
      "css": "thumbs-up",
      "code": 59392,
      "src": "fontawesome"
    },
    {
      "uid": "tau7t0t38662eqxrb80ozeiase5em2x9",
      "css": "thumbs-up-1",
      "code": 59393,
      "src": "typicons"
    },
    {
      "uid": "d02a803276d9e1f42b7393964aa22ce9",
      "css": "heart",
      "code": 59394,
      "src": "mfglabs"
    },
    {
      "uid": "9c1376672bb4f1ed616fdd78a23667e9",
      "css": "comment-empty",
      "code": 61669,
      "src": "fontawesome"
    },
    {
      "uid": "85528017f1e6053b2253785c31047f44",
      "css": "comment",
      "code": 59395,
      "src": "fontawesome"
    },
    {
      "uid": "16890362e811b4cb8de36282b071fe30",
      "css": "comment-1",
      "code": 59396,
      "src": "entypo"
    },
    {
      "uid": "679d36f8485f05180a2719c91b3f621e",
      "css": "comment-2",
      "code": 59397,
      "src": "iconic"
    },
    {
      "uid": "1bea05ec4430cc1cd93622249d6b92e9",
      "css": "comment-inv",
      "code": 59398,
      "src": "iconic"
    },
    {
      "uid": "51fb22f9ff9d7f60c95ef31e4c59502d",
      "css": "comment-3",
      "code": 62636,
      "src": "mfglabs"
    }
  ]
}